^D:\VAS_PROJECTS\CARLOS GARZA\DVRC++\DVRSERVICE\DVRSERVICE\DVRSERVICE\RELEASE\CURLX.OBJ|D:\VAS_PROJECTS\CARLOS GARZA\DVRC++\DVRSERVICE\DVRSERVICE\DVRSERVICE\RELEASE\DVRSERVICE.OBJ|D:\VAS_PROJECTS\CARLOS GARZA\DVRC++\DVRSERVICE\DVRSERVICE\DVRSERVICE\RELEASE\REQUESTPROCESS.OBJ|D:\VAS_PROJECTS\CARLOS GARZA\DVRC++\DVRSERVICE\DVRSERVICE\DVRSERVICE\RELEASE\STDAFX.OBJ
/ERRORREPORT:PROMPT /OUT:"D:\VAS_Projects\Carlos Garza\DVRC++\DVRService\DVRService\Release\DVRService.exe" /INCREMENTAL:NO /NOLOGO msvcrt.lib msvcmrt.lib kernel32.lib user32.lib gdi32.lib winspool.lib comdlg32.lib advapi32.lib shell32.lib ole32.lib oleaut32.lib uuid.lib odbc32.lib odbccp32.lib /MANIFEST /ManifestFile:"Release\DVRService.exe.intermediate.manifest" /MANIFESTUAC:"level='asInvoker' uiAccess='false'" /DEBUG /PDB:"D:\VAS_Projects\Carlos Garza\DVRC++\DVRService\DVRService\Release\DVRService.pdb" /SUBSYSTEM:CONSOLE /OPT:REF /OPT:ICF /LTCG /TLBID:1 /DYNAMICBASE /NXCOMPAT /IMPLIB:"D:\VAS_Projects\Carlos Garza\DVRC++\DVRService\DVRService\Release\DVRService.lib" /MACHINE:X86 Release\CurlX.obj
Release\DVRService.obj
Release\RequestProcess.obj
Release\stdafx.obj
