^D:\VAS_PROJECTS\CARLOS GARZA\DVRC++\DVRSERVICE\DVRSERVICE\DVRSERVICE\STDAFX.CPP
D:\VAS_PROJECTS\CARLOS GARZA\DVRC++\DVRSERVICE\DVRSERVICE\DVRSERVICE\DEBUG\DVRSERVICE.PCH
D:\VAS_PROJECTS\CARLOS GARZA\DVRC++\DVRSERVICE\DVRSERVICE\DVRSERVICE\DEBUG\VC100.PDB
D:\VAS_PROJECTS\CARLOS GARZA\DVRC++\DVRSERVICE\DVRSERVICE\DVRSERVICE\DEBUG\STDAFX.OBJ
^D:\VAS_PROJECTS\CARLOS GARZA\DVRC++\DVRSERVICE\DVRSERVICE\DVRSERVICE\DVRSERVICE.CPP|D:\VAS_PROJECTS\CARLOS GARZA\DVRC++\DVRSERVICE\DVRSERVICE\DVRSERVICE\INIREADER.CPP|D:\VAS_PROJECTS\CARLOS GARZA\DVRC++\DVRSERVICE\DVRSERVICE\DVRSERVICE\INIWRITER.CPP
D:\VAS_PROJECTS\CARLOS GARZA\DVRC++\DVRSERVICE\DVRSERVICE\DVRSERVICE\DEBUG\DVRSERVICE.OBJ
D:\VAS_PROJECTS\CARLOS GARZA\DVRC++\DVRSERVICE\DVRSERVICE\DVRSERVICE\DEBUG\INIWRITER.OBJ
^D:\VAS_PROJECTS\CARLOS GARZA\DVRC++\DVRSERVICE\DVRSERVICE\DVRSERVICE\DVRSERVICE.CPP
D:\VAS_PROJECTS\CARLOS GARZA\DVRC++\DVRSERVICE\DVRSERVICE\DVRSERVICE\DEBUG\VC100.PDB
D:\VAS_PROJECTS\CARLOS GARZA\DVRC++\DVRSERVICE\DVRSERVICE\DVRSERVICE\DEBUG\DVRSERVICE.OBJ
^D:\VAS_PROJECTS\CARLOS GARZA\DVRC++\DVRSERVICE\DVRSERVICE\DVRSERVICE\INIREADER.CPP
D:\VAS_PROJECTS\CARLOS GARZA\DVRC++\DVRSERVICE\DVRSERVICE\DVRSERVICE\DEBUG\VC100.PDB
^D:\VAS_PROJECTS\CARLOS GARZA\DVRC++\DVRSERVICE\DVRSERVICE\DVRSERVICE\INIWRITER.CPP
D:\VAS_PROJECTS\CARLOS GARZA\DVRC++\DVRSERVICE\DVRSERVICE\DVRSERVICE\DEBUG\VC100.PDB
^D:\VAS_PROJECTS\CARLOS GARZA\DVRC++\DVRSERVICE\DVRSERVICE\DVRSERVICE\DVRSERVICE.CPP|D:\VAS_PROJECTS\CARLOS GARZA\DVRC++\DVRSERVICE\DVRSERVICE\DVRSERVICE\INIREADER.CPP
^D:\VAS_PROJECTS\CARLOS GARZA\DVRC++\DVRSERVICE\DVRSERVICE\DVRSERVICE\CURLX.CPP|D:\VAS_PROJECTS\CARLOS GARZA\DVRC++\DVRSERVICE\DVRSERVICE\DVRSERVICE\DVRSERVICE.CPP|D:\VAS_PROJECTS\CARLOS GARZA\DVRC++\DVRSERVICE\DVRSERVICE\DVRSERVICE\REQUESTPROCESS.CPP
D:\VAS_PROJECTS\CARLOS GARZA\DVRC++\DVRSERVICE\DVRSERVICE\DVRSERVICE\DEBUG\DVRSERVICE.OBJ
D:\VAS_PROJECTS\CARLOS GARZA\DVRC++\DVRSERVICE\DVRSERVICE\DVRSERVICE\DEBUG\REQUESTPROCESS.OBJ
D:\VAS_PROJECTS\CARLOS GARZA\DVRC++\DVRSERVICE\DVRSERVICE\DVRSERVICE\DEBUG\CURLX.OBJ
^D:\VAS_PROJECTS\CARLOS GARZA\DVRC++\DVRSERVICE\DVRSERVICE\DVRSERVICE\CURLX.CPP
D:\VAS_PROJECTS\CARLOS GARZA\DVRC++\DVRSERVICE\DVRSERVICE\DVRSERVICE\DEBUG\VC100.PDB
^D:\VAS_PROJECTS\CARLOS GARZA\DVRC++\DVRSERVICE\DVRSERVICE\DVRSERVICE\REQUESTPROCESS.CPP
D:\VAS_PROJECTS\CARLOS GARZA\DVRC++\DVRSERVICE\DVRSERVICE\DVRSERVICE\DEBUG\VC100.PDB
